{
    "data-layout": "e-m:e-i64:64-f80:128-n8:16:32:64-S128",
    "llvm-target": "x86_64-elf",
    "target-endian": "little",
    "target-pointer-width": "64",
    "os": "wayless",
    "env": "sel4",
    "arch": "x86_64",
    "linker-is-gnu": true,
    "executables": true,
    "no-compiler-rt": false,
    "relocation-model": "pic",
    "position-independent-executables": false,
    "has-elf-tls": true,
    "panic-strategy": "abort",
    "cpu": "nehalem",
    "no-default-libraries": true,
    "pre-link-args": ["-m64", "-ffreestanding", "-nodefaultlibs", "-nostdlib"]
}
